<svg xmlns="http://www.w3.org/2000/svg" width="34" height="26" viewBox="0 0 34 26">
    <g fill="none" fill-rule="evenodd" stroke="#F5F7FA" stroke-linecap="round" stroke-width="2">
        <path stroke-linejoin="round" d="M15 20.534v2.918c0 .674.293 1.225.65 1.225h16.388c.358 0 .65-.551.65-1.225V2.225c0-.674-.292-1.225-.65-1.225H15.65a.35.35 0 0 0-.081.01 9.733 9.733 0 0 1 6.476 2.851c3.815 3.815 3.815 10 0 13.815A9.732 9.732 0 0 1 15 20.534z"/>
        <path d="M24 6h5.5M26 11h3.5M24 15h5.5M21 19h8.5"/>
        <path stroke-linejoin="round" d="M22.046 17.676c3.815-3.815 3.815-10 0-13.815-3.814-3.815-10-3.815-13.814 0C4.963 7.13 4.498 12.137 6.83 15.904l-5.599 5.599a.795.795 0 0 0 0 1.12l2.054 2.053a.794.794 0 0 0 1.12 0l5.599-5.599c3.767 2.333 8.774 1.867 12.042-1.401z"/>
    </g>
</svg>
