<svg xmlns="http://www.w3.org/2000/svg" width="28" height="27" viewBox="0 0 28 27">
    <g fill="none" fill-rule="evenodd" stroke="#7D8692" stroke-linecap="round" stroke-linejoin="round">
        <path d="M1 25.96h25.971M1 19.72h25.971M1 13.48h25.971M1 7.2h25.971M1 1h25.971"/>
    </g>
</svg>
