<svg xmlns="http://www.w3.org/2000/svg" xmlns:xlink="http://www.w3.org/1999/xlink" width="35" height="47" viewBox="0 0 35 47">
    <defs>
        <circle id="a" cx="8.859" cy="8.859" r="8.859"/>
    </defs>
    <g fill="none" fill-rule="evenodd">
        <g transform="rotate(45 11.278 20.4)">
            <mask id="b" fill="#fff">
                <use xlink:href="#a"/>
            </mask>
            <use stroke="#FFF" stroke-width="2" xlink:href="#a"/>
            <g stroke="#FFF" stroke-width="2" mask="url(#b)">
                <path d="M12.367 9.234a3.375 3.375 0 1 0-3.133 3.133 6.469 6.469 0 1 0 3.133-3.133z"/>
            </g>
        </g>
        <g fill="#FFF">
            <path d="M2.823 24l.872 1.975 1.95.317-1.411 1.537L4.567 30l-1.744-1.025L1.078 30l.333-2.17L0 26.291l1.95-.317L2.823 24M10.161 24l.873 1.975 1.95.317-1.411 1.537.333 2.171-1.745-1.025L8.417 30l.333-2.17-1.411-1.538 1.95-.317.872-1.975M17.5 24l.872 1.975 1.95.317-1.41 1.537.332 2.171-1.744-1.025L15.756 30l.333-2.17-1.412-1.538 1.95-.317L17.5 24M24.839 24l.872 1.975 1.95.317-1.411 1.537.333 2.171-1.744-1.025L23.094 30l.333-2.17-1.41-1.538 1.95-.317.872-1.975M32.177 24l.873 1.975 1.95.317-1.411 1.537.333 2.171-1.745-1.025L30.433 30l.333-2.17-1.411-1.538 1.95-.317.872-1.975"/>
        </g>
        <g stroke="#FFF" stroke-linecap="round" stroke-linejoin="round" stroke-width="2">
            <path d="M13 45.431v-9.862c0-.313.182-.569.405-.569h10.19c.223 0 .405.256.405.569v9.862c0 .313-.182.569-.405.569h-10.19c-.223 0-.405-.256-.405-.569zM15.895 40.79l2.316 2.315M21.105 37.895l-2.894 5.21"/>
        </g>
    </g>
</svg>
